{
  "project_info": {
    "project_number": "370528343211",
    "project_id": "ionfire-84263",
    "storage_bucket": "ionfire-84263.appspot.com"
  },
  "client": [
    {
      "client_info": {
        "mobilesdk_app_id": "1:370528343211:android:4246dc8ace1bfd508053ee",
        "android_client_info": {
          "package_name": "com.angularfire.ionfire"
        }
      },
      "oauth_client": [
        {
          "client_id": "370528343211-8dggloto1l3p9vo7rl6hk81himq26uq1.apps.googleusercontent.com",
          "client_type": 3
        }
      ],
      "api_key": [
        {
          "current_key": "AIzaSyCVxYToR2qpEBt-q09Tkbt8lmde0kivTOk"
        }
      ],
      "services": {
        "appinvite_service": {
          "other_platform_oauth_client": [
            {
              "client_id": "370528343211-8dggloto1l3p9vo7rl6hk81himq26uq1.apps.googleusercontent.com",
              "client_type": 3
            },
            {
              "client_id": "370528343211-fd03dfiq7dt49d2ijv02cfetk0jkm441.apps.googleusercontent.com",
              "client_type": 2,
              "ios_info": {
                "bundle_id": "com.angularfire.ionfire"
              }
            }
          ]
        }
      }
    }
  ],
  "configuration_version": "1"
}